{
	"variables": [],
	"info": {
		"name": "GymPass - kart",
		"_postman_id": "1c7f140e-c2ef-bb1d-ab4f-673fa478282c",
		"description": "",
		"schema": "https://schema.getpostman.com/json/collection/v2.0.0/collection.json"
	},
	"item": [
		{
			"name": "Post-json-kart",
			"request": {
				"url": "http://localhost:8081/api/kart-position",
				"method": "POST",
				"header": [
					{
						"key": "",
						"value": "",
						"description": "",
						"disabled": true
					},
					{
						"key": "Content-Type",
						"value": "application/json",
						"description": ""
					}
				],
				"body": {
					"mode": "raw",
					"raw": "{\n  \"pilotos\": [{\n    \"hora\": \"23:49:08.277\", \n    \"codigoPiloto\": 38,\n    \"piloto\": \"F.MASSA\",\n    \"numeroVolta\": 1,\n    \"tempoVolta\": \"1:02.852\",\n    \"velocidadeMediaVolta\": \"44,275\"\n  },{\n    \"hora\": \"23:49:10.858\", \n    \"codigoPiloto\": 33,\n    \"piloto\": \"R.BARRICHELLO\",\n    \"numeroVolta\": 1,\n    \"tempoVolta\": \"1:04.352\",\n    \"velocidadeMediaVolta\": \"43,243\"\n  },{\n    \"hora\": \"23:50:11.447\", \n    \"codigoPiloto\": 38,\n    \"piloto\": \"F.MASSA\",\n    \"numeroVolta\": 2,\n    \"tempoVolta\": \"1:03.170\",\n    \"velocidadeMediaVolta\": \"44,053\"\n  },{\n    \"hora\": \"23:50:14.860\", \n    \"codigoPiloto\": 33,\n    \"piloto\": \"R.BARRICHELLO\",\n    \"numeroVolta\": 2,\n    \"tempoVolta\": \"1:04.002\",\n    \"velocidadeMediaVolta\": \"43,48\"\n  },{\n    \"hora\": \"23:51:14.216\", \n    \"codigoPiloto\": 38,\n    \"piloto\": \"F.MASSA\",\n    \"numeroVolta\": 3,\n    \"tempoVolta\": \"1:02.769\",\n    \"velocidadeMediaVolta\": \"44,334\"\n  },{\n    \"hora\": \"23:51:18.576\", \n    \"codigoPiloto\": 33,\n    \"piloto\": \"R.BARRICHELLO\",\n    \"numeroVolta\": 3,\n    \"tempoVolta\": \"1:03.716\",\n    \"velocidadeMediaVolta\": \"43,675\"\n  },{\n    \"hora\": \"23:52:17.003\", \n    \"codigoPiloto\": 38,\n    \"piloto\": \"F.MASSA\",\n    \"numeroVolta\": 4,\n    \"tempoVolta\": \"1:02.787\",\n    \"velocidadeMediaVolta\": \"44,321\"\n  },{\n    \"hora\": \"23:52:22.586\", \n    \"codigoPiloto\": 33,\n    \"piloto\": \"R.BARRICHELLO\",\n    \"numeroVolta\": 4,\n    \"tempoVolta\": \"1:04.010\",\n    \"velocidadeMediaVolta\": \"43,474\"\n  }]\n}"
				},
				"description": ""
			},
			"response": []
		},
		{
			"name": "Post-form-data-kart",
			"request": {
				"url": "http://localhost:8081/api/kart-position",
				"method": "POST",
				"header": [
					{
						"key": "Content-Type",
						"value": "multipart/form-data",
						"description": ""
					}
				],
				"body": {
					"mode": "formdata",
					"formdata": [
						{
							"key": "file",
							"value": "",
							"description": "",
							"type": "file"
						}
					]
				},
				"description": ""
			},
			"response": []
		}
	]
}