{
  "MelhorVoltaCorrida": {
    "hora": "23:51:14.216",
    "codigoPiloto": 38,
    "piloto": "F.MASSA",
    "numeroVolta": "3",
    "tempoVolta": "1:02.769",
    "velocidadeMediaVolta": "44,334"
  },
  "karts": [
    {
      "posicaoChegada": 1,
      "codigoPiloto": 38,
      "nomePiloto": "F.MASSA",
      "qtdeVoltasCompletadas": 4,
      "tempoTotalProva": "04:11.578",
      "melhorVolta": 3,
      "velocidadeMediaCorrida": "44,246",
      "tempoChegadaAposGanhador": "0:00.000"
    },
    {
      "posicaoChegada": 2,
      "codigoPiloto": 2,
      "nomePiloto": "K.RAIKKONEN",
      "qtdeVoltasCompletadas": 4,
      "tempoTotalProva": "04:15.153",
      "melhorVolta": 1,
      "velocidadeMediaCorrida": "43,627",
      "tempoChegadaAposGanhador": "00:3.575"
    },
    {
      "posicaoChegada": 3,
      "codigoPiloto": 33,
      "nomePiloto": "R.BARRICHELLO",
      "qtdeVoltasCompletadas": 4,
      "tempoTotalProva": "04:16.080",
      "melhorVolta": 3,
      "velocidadeMediaCorrida": "43,468",
      "tempoChegadaAposGanhador": "00:4.502"
    },
    {
      "posicaoChegada": 4,
      "codigoPiloto": 23,
      "nomePiloto": "M.WEBBER",
      "qtdeVoltasCompletadas": 4,
      "tempoTotalProva": "04:17.722",
      "melhorVolta": 3,
      "velocidadeMediaCorrida": "43,191",
      "tempoChegadaAposGanhador": "00:6.144"
    },
    {
      "posicaoChegada": 5,
      "codigoPiloto": 15,
      "nomePiloto": "F.ALONSO",
      "qtdeVoltasCompletadas": 4,
      "tempoTotalProva": "04:54.221",
      "melhorVolta": 1,
      "velocidadeMediaCorrida": "38,066",
      "tempoChegadaAposGanhador": "00:42.643"
    },
    {
      "posicaoChegada": 6,
      "codigoPiloto": 11,
      "nomePiloto": "S.VETTEL",
      "qtdeVoltasCompletadas": 3,
      "tempoTotalProva": "06:27.276",
      "melhorVolta": 3,
      "velocidadeMediaCorrida": "25,746",
      "tempoChegadaAposGanhador": "??:??.???"
    }
  ]
}